…
cross_validation
```

    ## # A tibble: 100 × 9
    ##    train    test     .id   model_1 model_2 my_model rmse_model_1 rmse_model_2
    ##    <list>   <list>   <chr> <list>  <list>  <list>          <dbl>        <dbl>
    ##  1 <tibble> <tibble> 001   <lm>    <lm>    <lm>             360.         302.
    ##  2 <tibble> <tibble> 002   <lm>    <lm>    <lm>             322.         280.
    ##  3 <tibble> <tibble> 003   <lm>    <lm>    <lm>             307.         279.
    ##  4 <tibble> <tibble> 004   <lm>    <lm>    <lm>             337.         298.
    ##  5 <tibble> <tibble> 005   <lm>    <lm>    <lm>             367.         303.
    ##  6 <tibble> <tibble> 006   <lm>    <lm>    <lm>             314.         282.
    ##  7 <tibble> <tibble> 007   <lm>    <lm>    <lm>             357.         290.
    ##  8 <tibble> <tibble> 008   <lm>    <lm>    <lm>             346.         301.
    ##  9 <tibble> <tibble> 009   <lm>    <lm>    <lm>             327.         287.
    ## 10 <tibble> <tibble> 010   <lm>    <lm>    <lm>             338.         292.
    ## # ℹ 90 more rows
    ## # ℹ 1 more variable: rmse_my_model <dbl>
…
